[
	{
		"eventDate":"2015.04.24",
		"eventTitleA":"メガネデパート大創業祭！",
		"eventLinkA":"http://www.meganenoharada.com/pdf/20150424a.pdf",
		"eventTitleB":"新製品 サングレーメガネ",
		"eventLinkB":"http://www.meganenoharada.com/pdf/20150424b.pdf",
		"eventText":""
	},
	{
		"eventDate":"2015.04.13",
		"eventTitleA":"メガネリフォーム　好評開催中！",
		"eventLinkA":"http://www.meganenoharada.com/pdf/20150413a.pdf",
		"eventTitleB":"子供メガネ専門店",
		"eventLinkB":"http://www.meganenoharada.com/pdf/20150413b.pdf",
		"eventText":""
	},
	{
		"eventDate":"2015.03.25",
		"eventTitleA":"",
		"eventLinkA":"",
		"eventTitleB":"",
		"eventLinkB":"",
		"eventText":"メガネのハラダホームページがスマートフォン対応になりました！<br>お得なクーポンもありますので、是非ご利用ください！"
	}
]